…
Probablemente no es exactamente lo que escribir??amos a mano si hici??ramos la consulta directo en SQL, pero cumple su funci??n. Podemos obtener m??s informaci??n sobre la traducci??n a SQL en `vignette("sql-translation")`.

Normalmente, repetiremos varias veces antes de averiguar qu?? datos necesitamos realmente de la base de datos. Una vez que lo hayamos descifrado, debemos usar `collect()` para guardar todos los datos a un `tibble` o `data.frame` local:

```{r, message=FALSE, warning=FALSE, include=TRUE, eval=FALSE}
tailnum_delay <- tailnum_delay_db %>% collect()
tailnum_delay
# A tibble: 1,201 x 3
#    tailnum delay     n
#    <chr>   <dbl> <dbl>
#  1 <NA>    NA     2512
#  2 N0EGMQ   9.98   371
#  3 N10156  12.7    153
#  4 N10575  20.7    289
#  5 N11106  14.9    129
#  6 N11107  15.0    148
#  7 N11109  14.9    148
#  8 N11113  15.8    138
#  9 N11119  30.3    148
# 10 N11121  10.3    154
# ... with 1,191 more rows
```
…
