…
x <- c("apple", "banana", "pear")
str_count(x, "a")
#> [1] 1 3 1

# On average, how many vowels per word?
mean(str_count(words, "[aeiou]"))
#> [1] 1.99
Es natural usarlo str_count()con mutate():

df %>% 
  mutate(
    vowels = str_count(word, "[aeiou]"),
    consonants = str_count(word, "[^aeiou]")
  )
#> # A tibble: 980 x 4
#>   word         i vowels consonants
#>   <chr>    <int>  <int>      <int>
#> 1 a            1      1          0
#> 2 able         2      2          2
#> 3 about        3      3          2
#> 4 absolute     4      4          4
#> 5 accept       5      2          4
#> 6 account      6      3          4
#> # ... with 974 more rows
…
Si sus datos están en un tibble, a menudo es más fácil de usar tidyr::extract(). Funciona de la misma manera str_match()pero requiere que nombre las coincidencias, que luego se colocan en columnas nuevas:

tibble(sentence = sentences) %>% 
  tidyr::extract(
    sentence, c("article", "noun"), "(a|the) ([^ ]+)", 
    remove = FALSE
  )
#> # A tibble: 720 x 3
#>   sentence                                    article noun   
#>   <chr>                                       <chr>   <chr>  
#> 1 The birch canoe slid on the smooth planks.  the     smooth 
#> 2 Glue the sheet to the dark blue background. the     sheet  
#> 3 It's easy to tell the depth of a well.      the     depth  
#> 4 These days a chicken leg is a rare dish.    a       chicken
#> 5 Rice is often served in round bowls.        <NA>    <NA>   
#> 6 The juice of lemons makes fine punch.       <NA>    <NA>   
#> # ... with 714 more rows
…
15.4.1 Ejercicios
Hay algunos números sospechosamente altos en tvhours. ¿Es el medio un buen resumen?

Para cada factor, gss_catidentifique si el orden de los niveles es arbitrario o de principios.

¿Por qué mover "No aplicable" al frente de los niveles lo mueve al final de la gráfica?

15.5 Modificación de niveles de factores
Más poderoso que cambiar las órdenes de los niveles es cambiar sus valores. Esto le permite aclarar las etiquetas para su publicación y los niveles de contracción para las pantallas de alto nivel. La herramienta más general y poderosa es fct_recode(). Le permite recodificar o cambiar el valor de cada nivel. Por ejemplo, tome el gss_cat$partyid:

gss_cat %>% count(partyid)
#> # A tibble: 10 x 2
#>   partyid                n
#>   <fct>              <int>
#> 1 No answer            154
#> 2 Don't know             1
#> 3 Other party          393
#> 4 Strong republican   2314
#> 5 Not str republican  3032
#> 6 Ind,near rep        1791
#> # ... with 4 more rows
Los niveles son escuetos e inconsistentes. Vamos a ajustarlos para que sean más largos y usar una construcción paralela.

gss_cat %>%
  mutate(partyid = fct_recode(partyid,
    "Republican, strong"    = "Strong republican",
    "Republican, weak"      = "Not str republican",
    "Independent, near rep" = "Ind,near rep",
    "Independent, near dem" = "Ind,near dem",
    "Democrat, weak"        = "Not str democrat",
    "Democrat, strong"      = "Strong democrat"
  )) %>%
  count(partyid)
#> # A tibble: 10 x 2
#>   partyid                   n
#>   <fct>                 <int>
#> 1 No answer               154
#> 2 Don't know                1
#> 3 Other party             393
#> 4 Republican, strong     2314
#> 5 Republican, weak       3032
#> 6 Independent, near rep  1791
#> # ... with 4 more rows
…
gss_cat %>%
  mutate(partyid = fct_recode(partyid,
    "Republican, strong"    = "Strong republican",
    "Republican, weak"      = "Not str republican",
    "Independent, near rep" = "Ind,near rep",
    "Independent, near dem" = "Ind,near dem",
    "Democrat, weak"        = "Not str democrat",
    "Democrat, strong"      = "Strong democrat",
    "Other"                 = "No answer",
    "Other"                 = "Don't know",
    "Other"                 = "Other party"
  )) %>%
  count(partyid)
#> # A tibble: 8 x 2
#>   partyid                   n
#>   <fct>                 <int>
#> 1 Other                   548
#> 2 Republican, strong     2314
#> 3 Republican, weak       3032
#> 4 Independent, near rep  1791
#> 5 Independent            4119
#> 6 Independent, near dem  2499
#> # ... with 2 more rows
…
